<svg width="47" height="32" viewBox="0 0 47 32" fill="none" xmlns="http://www.w3.org/2000/svg">
<path d="M45.769 31.6695H0.955322V0.981445H46.5435V31.6695H45.769Z" fill="white"/>
<g clip-path="url(#clip0_60_191)">
<path fill-rule="evenodd" clip-rule="evenodd" d="M11.2495 3.56738H36.2495V29.5674H11.2495V3.56738Z" fill="white"/>
<path fill-rule="evenodd" clip-rule="evenodd" d="M19.6608 5.5C23.1355 5.5 25.9783 8.51105 25.9783 12.2157C25.9783 15.9021 23.1354 18.9133 19.6608 18.9133C16.1687 18.9133 13.3257 15.9021 13.3257 12.2157C13.3257 8.51105 16.1687 5.5 19.6608 5.5Z" fill="#D0D1D3"/>
<path fill-rule="evenodd" clip-rule="evenodd" d="M19.7484 5.38965C16.186 5.38965 13.3081 8.43725 13.3081 12.2149C13.3081 15.9743 16.1685 19.022 19.7484 19.022V19.0402H27.7681C31.3654 19.0402 34.2084 15.9925 34.2084 12.2149C34.2084 8.43725 31.2952 5.38965 27.6979 5.38965C27.7507 5.40786 19.801 5.38965 19.7484 5.38965ZM19.7484 5.66347C23.188 5.66347 25.9255 8.58333 25.9255 12.2149C25.9255 15.8465 23.1878 18.7665 19.7484 18.7665C16.3264 18.7665 13.5538 15.8465 13.5538 12.2149C13.5538 8.58333 16.3264 5.66347 19.7484 5.66347ZM20.8363 16.7043V7.7256C22.7315 8.23654 24.1178 10.025 24.1178 12.2149C24.1179 14.4049 22.7317 16.2115 20.8363 16.7043ZM18.6778 7.70739V16.7223C16.7651 16.2297 15.3962 14.4231 15.3962 12.2149C15.3962 10.025 16.7651 8.19999 18.6778 7.70739Z" fill="#234B8D"/>
<path fill-rule="evenodd" clip-rule="evenodd" d="M13.2905 23.1093C13.4309 23.0911 13.5362 23.0364 13.5713 22.927C13.5888 22.8537 13.6064 22.7808 13.6414 22.7078L14.01 21.2843C14.0452 21.1384 14.0625 21.0472 14.0977 20.9558V20.8646C14.0977 20.7734 14.0275 20.7186 13.9047 20.7186L13.7994 20.7002L13.8345 20.609H14.6418C14.9226 20.609 15.1682 20.6272 15.3262 20.6819C15.5368 20.7549 15.6947 20.8827 15.8 21.0653C15.9053 21.2479 15.9579 21.4486 15.9579 21.6858C15.9579 22.0509 15.8351 22.3792 15.5718 22.6714C15.3261 22.927 15.0279 23.091 14.6593 23.164C14.4838 23.2005 14.2908 23.2005 14.0977 23.2005H13.2729L13.2905 23.1093ZM14.045 22.5801L13.9924 22.8175C13.9749 22.8539 13.9749 22.8722 13.9749 22.9086C13.9749 22.9816 14.01 23.0182 14.0802 23.0182C14.1153 23.0364 14.1679 23.0364 14.2382 23.0364C14.7997 23.0364 15.1857 22.7808 15.4139 22.2519C15.5015 22.0327 15.5367 21.832 15.5367 21.6131C15.5367 21.3574 15.4664 21.1567 15.3436 21.0108C15.2031 20.8466 15.0278 20.7737 14.782 20.7737C14.6767 20.7737 14.624 20.7919 14.5714 20.8101L14.5362 20.8283C14.5362 20.8468 14.5187 20.8468 14.5187 20.8648L14.4309 21.1567L14.045 22.5801ZM16.8529 22.8175L16.8177 22.8722C16.7651 22.927 16.73 23 16.6774 23.0546C16.5721 23.1823 16.4668 23.2553 16.3439 23.2553C16.2036 23.2553 16.1333 23.1641 16.1509 23C16.1509 22.927 16.1684 22.7992 16.2036 22.653L16.4492 21.7771C16.4669 21.7407 16.4669 21.7041 16.4669 21.6677C16.4669 21.6129 16.4492 21.5762 16.3791 21.5582H16.2386L16.2738 21.4852L16.8704 21.3758L16.5019 22.7263L16.4668 22.8904C16.4491 22.927 16.4491 22.9634 16.4491 22.9816C16.4316 23.0182 16.4668 23.0364 16.5018 23.0364C16.5368 23.0364 16.5896 23.0182 16.6422 22.9634C16.6774 22.9086 16.7124 22.8722 16.7475 22.8175L16.7827 22.7627L16.8529 22.8175ZM16.6247 20.7735C16.6247 20.6273 16.6949 20.5361 16.8177 20.5361C16.9405 20.5361 16.9932 20.6091 16.9932 20.7551C16.9932 20.8098 16.9757 20.8646 16.9405 20.9195C16.9054 20.9559 16.8527 20.9742 16.8001 20.9742C16.6774 20.9744 16.6247 20.9011 16.6247 20.7735ZM17.2213 22.6897L17.3442 22.2334L17.4495 21.7771C17.467 21.7226 17.467 21.6859 17.467 21.6677C17.467 21.5947 17.4318 21.5582 17.3792 21.5582H17.2388L17.2565 21.4852L17.8706 21.3758L17.66 22.1422L17.7126 22.051L17.8179 21.8866C18.0637 21.54 18.2917 21.3573 18.4848 21.3758C18.6252 21.3758 18.6955 21.4488 18.713 21.5947V21.6859L18.6955 21.8136L18.6603 21.9414L18.4497 22.7626L18.397 22.9452V23.0001C18.397 23.0365 18.4146 23.0365 18.4322 23.0365C18.4848 23.0365 18.5725 22.9817 18.6603 22.8539L18.7481 22.7627L18.8008 22.7992L18.7305 22.927C18.6953 22.9634 18.6603 23.0182 18.6077 23.0544C18.5725 23.091 18.5375 23.1277 18.4848 23.164C18.4497 23.1822 18.4146 23.2187 18.3795 23.2187C18.3444 23.2552 18.3094 23.2552 18.2742 23.2552C18.1514 23.2552 18.0987 23.1822 18.0987 23.0544V22.927C18.1162 22.8175 18.1338 22.7443 18.1689 22.6714L18.3619 21.9414L18.3794 21.8136C18.3969 21.7589 18.3969 21.7225 18.3969 21.6859V21.6311C18.3794 21.5947 18.3618 21.5764 18.3267 21.5764C18.2389 21.5949 18.1513 21.6496 18.046 21.759L17.9583 21.8685C17.8705 21.9963 17.7828 22.1241 17.7125 22.2519C17.6598 22.3431 17.6248 22.4342 17.5897 22.5072L17.5195 22.7264L17.379 23.2009H17.0807L17.2213 22.6897ZM19.3623 22.5438C19.3447 22.5985 19.3447 22.6532 19.3447 22.7079C19.3447 22.7445 19.3447 22.7809 19.3623 22.8175C19.3623 22.8539 19.3974 22.9086 19.4324 22.9452C19.4851 23 19.5729 23.0364 19.6782 23.0364C19.7659 23.0364 19.8185 23.0364 19.8888 23C19.9415 22.9815 19.9941 22.9452 20.0818 22.8904L20.1696 22.8175L20.2223 22.7809L20.2749 22.8357L20.1873 22.9271C20.1346 22.9635 20.0819 23.0001 20.0293 23.0546C19.8538 23.1823 19.6783 23.2553 19.5204 23.2553C19.4325 23.2553 19.3449 23.2371 19.2922 23.2008C19.0991 23.1093 18.9938 22.9452 18.9938 22.6897C18.9938 22.3793 19.1166 22.0875 19.3449 21.8138C19.5905 21.5219 19.8538 21.3759 20.1345 21.3759C20.3626 21.3759 20.4679 21.4671 20.4679 21.6678C20.4679 21.8867 20.3451 22.0694 20.0818 22.2334C19.9238 22.3429 19.7133 22.416 19.4325 22.4523H19.3799L19.3623 22.5438ZM19.5554 22.3064C19.8537 22.2152 20.0467 22.0327 20.152 21.7589C20.1696 21.7225 20.1696 21.6677 20.1696 21.6311C20.1696 21.54 20.1345 21.4852 20.0467 21.4852C19.9238 21.4852 19.7835 21.6129 19.6432 21.8318C19.5729 21.9414 19.5204 22.0326 19.4852 22.1055C19.4676 22.1603 19.4501 22.2333 19.4149 22.3429L19.5554 22.3064ZM20.7486 22.7627L20.9241 22.1241L21.0119 21.7772C21.0294 21.7408 21.0294 21.7042 21.0294 21.6678V21.6131C21.0139 21.5953 20.9949 21.5812 20.9737 21.5717C20.9524 21.5623 20.9295 21.5577 20.9064 21.5583H20.7661L20.8012 21.4853L21.398 21.3759L21.2225 22.0694L21.3102 21.9234L21.4506 21.7042C21.6086 21.4853 21.7314 21.3759 21.8543 21.3759C21.9771 21.3759 22.0473 21.4489 22.0473 21.5764C22.0473 21.6496 22.0297 21.7041 21.9946 21.7408C21.9594 21.7772 21.9069 21.7956 21.8718 21.7956C21.8015 21.7956 21.7665 21.7771 21.7313 21.7408L21.6962 21.6678H21.6611L21.626 21.686L21.5382 21.7772C21.468 21.8867 21.3802 21.9964 21.2925 22.1606C21.2574 22.2335 21.2224 22.325 21.1697 22.4342C21.1346 22.562 21.0819 22.6716 21.0469 22.7994L20.9241 23.2009H20.6433L20.7486 22.7627ZM22.1174 22.6348L22.1349 22.7078C22.1349 22.7626 22.1524 22.8173 22.1701 22.8537C22.2227 23.0544 22.3281 23.1459 22.5035 23.1277C22.5737 23.1277 22.6439 23.1092 22.6965 23.0544C22.7317 23 22.7668 22.927 22.7668 22.8355C22.7668 22.7991 22.7668 22.7626 22.7492 22.7078C22.714 22.653 22.679 22.5801 22.6439 22.5071L22.4684 22.2334C22.4157 22.1604 22.3806 22.0875 22.3631 22.0327C22.3292 21.965 22.3112 21.89 22.3104 21.8138C22.3104 21.759 22.3279 21.7042 22.3456 21.6496C22.3631 21.5949 22.3982 21.5582 22.4332 21.5219C22.4671 21.4702 22.5165 21.4317 22.5737 21.4123C22.6439 21.3759 22.6965 21.3759 22.7667 21.3759C22.8369 21.3759 22.8895 21.3759 22.9597 21.3941C23.0475 21.4123 23.1001 21.4306 23.1352 21.4306C23.1702 21.4306 23.2055 21.4123 23.2228 21.3941L23.2405 21.3759H23.2931L23.2055 21.9234H23.1352V21.832C23.1 21.6131 22.9772 21.4853 22.8017 21.4853C22.6789 21.4853 22.6087 21.5583 22.6087 21.7042C22.6087 21.7957 22.6439 21.905 22.7315 22.0512L22.907 22.3065C22.9597 22.3795 22.9948 22.4342 23.0123 22.4891C23.0475 22.5621 23.065 22.6351 23.065 22.7081C23.065 22.8725 22.9948 23.0002 22.8895 23.1096C22.7842 23.2011 22.6437 23.2556 22.4859 23.2556C22.4332 23.2556 22.3631 23.2556 22.3104 23.2374C22.2051 23.2009 22.1349 23.2009 22.1174 23.2009H22.0823L22.0648 23.2191L22.0296 23.2556H21.9593L22.047 22.617L22.1174 22.6348ZM26.7504 22.653L26.6624 22.7626C26.3818 23.0911 26.0833 23.2552 25.7325 23.2552C25.4516 23.2552 25.206 23.1458 25.0131 22.9451C24.9251 22.8536 24.8725 22.7443 24.8374 22.6347C24.7797 22.4965 24.7497 22.3475 24.7495 22.1968C24.7495 22.0324 24.7847 21.8683 24.8374 21.6858C24.9426 21.3757 25.1356 21.1202 25.399 20.901C25.6622 20.6821 25.9604 20.5727 26.2763 20.5543C26.4169 20.5728 26.5922 20.5909 26.7852 20.6458C26.8379 20.6458 26.8732 20.664 26.9081 20.664C26.9262 20.6643 26.944 20.6594 26.9596 20.6497C26.9751 20.64 26.9877 20.626 26.996 20.6092L27.0135 20.5728L27.1012 20.591L26.9433 21.3758H26.8557V21.3026C26.8379 21.2296 26.8379 21.1751 26.8205 21.1021C26.803 21.0289 26.7679 20.9744 26.7152 20.9195C26.61 20.7917 26.4694 20.7368 26.2589 20.7368C26.0131 20.7368 25.8027 20.8464 25.6097 21.0654C25.442 21.2578 25.3216 21.4895 25.2586 21.7407C25.2062 21.9233 25.1709 22.1055 25.1884 22.27C25.1709 22.4707 25.2236 22.653 25.3465 22.7992C25.4517 22.9634 25.6097 23.0364 25.8202 23.0364C26.0833 23.0364 26.3466 22.9086 26.61 22.6348L26.6624 22.5801L26.7504 22.653ZM27.5573 20.9744C27.5751 20.9196 27.5925 20.8648 27.5925 20.8282L27.575 20.7917C27.5572 20.7552 27.5223 20.737 27.4521 20.737H27.3468L27.3643 20.664L27.9786 20.5545L27.3995 22.7809C27.3643 22.8723 27.3643 22.9453 27.3643 22.9816V23.0001C27.3643 23.0365 27.3821 23.0365 27.417 23.0365C27.4348 23.0365 27.4872 23.0183 27.5573 22.9453L27.6453 22.8539L27.7154 22.7627L27.7506 22.7263L27.8207 22.7627L27.7681 22.8539C27.7154 22.9086 27.6802 22.9634 27.6278 23.0183C27.5049 23.1825 27.382 23.2554 27.2592 23.2554C27.2065 23.2554 27.1538 23.2372 27.1011 23.2009C27.066 23.1644 27.0484 23.1095 27.0484 23.0547C27.0484 23.0183 27.0484 22.9635 27.0662 22.9272L27.1363 22.6533L27.5573 20.9744ZM28.9612 22.6167C28.856 22.7809 28.7684 22.9086 28.663 23.0183C28.5227 23.1825 28.3821 23.2554 28.2417 23.2554C28.1891 23.2554 28.1366 23.2372 28.1014 23.1825C28.0657 23.129 28.0473 23.0651 28.0488 23.0001C28.0488 22.9453 28.0488 22.8906 28.0663 22.8175L28.1189 22.6348L28.3297 21.7771C28.3472 21.7407 28.3472 21.7041 28.3472 21.6677C28.3472 21.5947 28.3297 21.5582 28.2593 21.5582H28.1189L28.1541 21.4852L28.7507 21.3758L28.3821 22.7808C28.3646 22.8722 28.3471 22.927 28.3471 22.9634C28.3471 23.0182 28.3646 23.0364 28.4172 23.0364C28.4699 23.0364 28.5576 22.9816 28.6452 22.8722L28.7858 22.6896L28.891 22.5069C28.9437 22.434 28.9963 22.3428 29.0491 22.2333C29.1193 22.1239 29.1719 21.9961 29.2247 21.8684C29.2597 21.7589 29.2949 21.6677 29.3299 21.558L29.3651 21.4121H29.6635L29.6108 21.631L29.488 22.0873C29.4354 22.288 29.3827 22.4522 29.3477 22.5984L29.295 22.8173C29.2773 22.8903 29.2773 22.9451 29.2773 22.9815C29.2773 23.018 29.295 23.0362 29.3124 23.0362C29.3475 23.0362 29.4001 22.9998 29.4527 22.9268L29.558 22.7991L29.6107 22.7443L29.6809 22.7991L29.6282 22.8536L29.5054 23.0362C29.4704 23.0728 29.4177 23.1277 29.3826 23.164C29.3124 23.2187 29.2422 23.2552 29.1721 23.2552C29.0317 23.2552 28.9613 23.1822 28.9613 23.0544C28.9613 23 28.9613 22.9633 28.9791 22.8903L29.0141 22.7443L29.102 22.3977L28.9612 22.6167ZM30.488 21.8503C30.5406 21.7589 30.5933 21.6859 30.6461 21.6311C30.8039 21.4488 30.9794 21.3758 31.155 21.3758C31.2077 21.3758 31.2603 21.3758 31.3306 21.4122C31.506 21.4852 31.5764 21.6496 31.5938 21.9048C31.5763 22.2334 31.4534 22.5436 31.1903 22.8175C31.0322 22.9816 30.8743 23.1093 30.7164 23.1823C30.6112 23.2371 30.4881 23.2553 30.3655 23.2553C30.1726 23.2553 30.0145 23.2008 29.909 23.0911L29.8915 23.0546C29.874 23.0546 29.874 23.0364 29.874 23.0364V22.9816L29.909 22.8722L30.4004 20.9924C30.4179 20.9195 30.4356 20.8647 30.4356 20.828V20.7916C30.4178 20.7551 30.3654 20.7368 30.2952 20.7368H30.1899L30.2074 20.6639L30.8217 20.5543L30.488 21.8503ZM30.2073 22.9816C30.2073 23.0911 30.26 23.146 30.4003 23.1278C30.5584 23.1278 30.6987 23.0546 30.8391 22.8904C30.9794 22.7263 31.0673 22.5618 31.155 22.3611C31.2077 22.197 31.2427 22.0326 31.2427 21.8866C31.2427 21.6859 31.155 21.5947 30.9972 21.5762C30.8743 21.5762 30.7514 21.6677 30.6286 21.8318C30.5258 21.9542 30.4481 22.0971 30.4003 22.2517L30.3126 22.5071C30.2425 22.7263 30.2073 22.8904 30.2073 22.9816ZM13.3783 27.5987L13.4309 27.5805C13.5186 27.5621 13.5714 27.5258 13.5889 27.4891C13.624 27.4527 13.6415 27.4161 13.6415 27.3797L13.7118 27.1241L14.1505 25.5181L14.168 25.4269C14.1856 25.4085 14.1856 25.3722 14.1856 25.354C14.1856 25.2625 14.1153 25.2262 14.0102 25.2078L13.9223 25.1895L13.9399 25.0984H14.8876L14.87 25.1895L14.7997 25.2078C14.6944 25.2262 14.6243 25.2807 14.5891 25.3722C14.5716 25.4452 14.5365 25.5363 14.519 25.6278L14.0802 27.2335C14.0625 27.3249 14.045 27.3797 14.045 27.4161C14.045 27.5073 14.0977 27.5621 14.238 27.5805L14.3082 27.5987L14.2907 27.6899H13.3431L13.3783 27.5987ZM14.7646 27.1791L14.8874 26.7228L15.0102 26.2665C15.0102 26.2117 15.0102 26.1753 15.0279 26.1387C15.0102 26.084 14.9927 26.0476 14.9226 26.0476L14.8349 26.0293H14.7822L14.8174 25.9564L15.4141 25.8468L15.2035 26.6316L15.2562 26.5402L15.3615 26.376C15.6248 26.0293 15.8353 25.8467 16.0284 25.8467C16.1688 25.8649 16.239 25.9379 16.2565 26.0838V26.1752L16.2389 26.2846L16.2039 26.4308L15.9932 27.2519L15.9406 27.4343V27.4891C15.9581 27.5256 15.9757 27.5256 15.9932 27.5256C16.0459 27.5256 16.1161 27.4709 16.2039 27.343L16.2915 27.2335L16.3618 27.2882L16.274 27.3978C16.2389 27.4525 16.2039 27.5072 16.1687 27.5437C16.1336 27.5803 16.081 27.6167 16.0459 27.6532L15.9406 27.708C15.8879 27.7262 15.8528 27.7444 15.8177 27.7444C15.7124 27.7444 15.6423 27.6714 15.6423 27.5437C15.6423 27.4889 15.6423 27.4525 15.6598 27.3978C15.6773 27.3066 15.6949 27.2333 15.7124 27.1604L15.9054 26.4306L15.9231 26.3029C15.9406 26.2481 15.9406 26.2114 15.9406 26.1752V26.1204C15.9231 26.0838 15.9054 26.0656 15.8703 26.0656C15.8001 26.0656 15.7123 26.1204 15.6071 26.2483L15.5018 26.3577C15.4141 26.4672 15.3438 26.5951 15.2562 26.741C15.2035 26.8325 15.1684 26.9054 15.1508 26.9784L15.0632 27.1973L14.9227 27.6899H14.6244L14.7646 27.1791ZM16.6247 26.0476L16.6422 25.9564C16.7827 25.9198 16.8879 25.8649 16.9757 25.7737C17.0383 25.7307 17.097 25.6818 17.1512 25.6278L17.274 25.4634H17.3443L17.239 25.9015H17.5373L17.5021 26.0474H17.2038L16.8704 27.2882L16.8529 27.3797L16.8354 27.4527C16.8354 27.4709 16.8354 27.4891 16.8529 27.5072L16.8704 27.5256C16.923 27.5256 16.9757 27.4709 17.0635 27.3612C17.0986 27.3248 17.1162 27.2882 17.1512 27.2518L17.1687 27.2153L17.2388 27.2518L17.2037 27.3248L17.0809 27.4707C17.0457 27.5255 17.0107 27.5803 16.9756 27.6167C16.8878 27.6897 16.8001 27.7444 16.6948 27.7444C16.5719 27.7444 16.5193 27.6714 16.5193 27.5437C16.5193 27.5072 16.5193 27.4707 16.5368 27.416L16.607 27.1788L16.9054 26.0473H16.6247V26.0476ZM17.9408 27.0332C17.9233 27.0877 17.9056 27.1426 17.9056 27.1973C17.9056 27.2337 17.9231 27.2703 17.9231 27.3068C17.9406 27.3433 17.9583 27.3798 18.0109 27.4162C18.0636 27.4892 18.1514 27.5258 18.2566 27.5258C18.3269 27.5258 18.397 27.5073 18.4496 27.4892C18.5022 27.4528 18.5724 27.4162 18.6427 27.3798L18.748 27.2884L18.783 27.2702L18.8533 27.3249L18.7655 27.3979C18.7129 27.4527 18.6602 27.4891 18.6075 27.5256C18.4321 27.6716 18.2566 27.7445 18.0811 27.7445C18.0019 27.7459 17.9236 27.7271 17.853 27.6898C17.66 27.5986 17.5722 27.4342 17.5722 27.179C17.5722 26.8686 17.695 26.5767 17.9056 26.303C18.1689 26.0109 18.4322 25.8467 18.7129 25.8467C18.9235 25.8649 19.0463 25.9562 19.0463 26.1571C19.0288 26.376 18.9058 26.5584 18.6602 26.7227C18.4847 26.8138 18.2741 26.8868 18.0109 26.9416H17.9583L17.9408 27.0332ZM18.1164 26.7776C18.4147 26.7046 18.6252 26.5219 18.713 26.2483C18.7305 26.1935 18.7481 26.1571 18.7481 26.1205C18.7481 26.011 18.713 25.9746 18.6252 25.9746C18.5024 25.9746 18.362 26.1023 18.2041 26.3212C18.1514 26.4124 18.0987 26.5039 18.0636 26.5949C18.0461 26.6497 18.0109 26.7227 17.9934 26.8138L18.1164 26.7776ZM19.3272 27.2521L19.5027 26.6133L19.5905 26.2666V26.1025C19.5905 26.0659 19.5554 26.0477 19.4852 26.0477L19.3974 26.0295H19.3447L19.3623 25.9565L19.9764 25.847L19.7834 26.5585L19.8887 26.4126L20.0292 26.1936C20.1696 25.9747 20.31 25.847 20.4328 25.847C20.5556 25.847 20.6083 25.92 20.6258 26.0659C20.6083 26.1389 20.6083 26.1936 20.5731 26.2118C20.538 26.2666 20.4853 26.2848 20.4328 26.2848C20.3801 26.2848 20.3275 26.2666 20.3098 26.2118L20.2572 26.1574H20.222L20.2044 26.1756L20.1167 26.2667C20.0289 26.3579 19.9587 26.4857 19.8709 26.6501C19.8358 26.7231 19.7831 26.8142 19.7481 26.9238C19.6954 27.0333 19.6603 27.1609 19.6253 27.2704L19.5025 27.6901H19.2042L19.3272 27.2521ZM20.6959 27.1791L20.8188 26.7228L20.9241 26.2665C20.9241 26.2117 20.9416 26.1753 20.9416 26.1387C20.9416 26.084 20.9064 26.0476 20.8538 26.0476L20.7661 26.0293H20.7134L20.731 25.9564L21.3451 25.8468L21.1169 26.6316L21.1871 26.5402L21.2924 26.376C21.5381 26.0293 21.7662 25.8467 21.9417 25.8467C22.0821 25.8649 22.1698 25.9379 22.1875 26.0838V26.1204L22.1698 26.1752L22.1523 26.2846L22.1348 26.4308L21.9067 27.2519L21.8715 27.4343V27.4891C21.8715 27.5256 21.889 27.5256 21.9067 27.5256C21.9593 27.5256 22.0295 27.4709 22.1348 27.343L22.205 27.2335L22.2751 27.2882L22.1875 27.3978C22.1523 27.4525 22.1172 27.5072 22.0821 27.5437C22.047 27.5803 21.9943 27.6167 21.9593 27.6532L21.854 27.708C21.8189 27.7262 21.7663 27.7444 21.7312 27.7444C21.6259 27.7444 21.5733 27.6714 21.5557 27.5437C21.5557 27.4889 21.5557 27.4525 21.5732 27.3978C21.5907 27.3066 21.6084 27.2333 21.6259 27.1604L21.8189 26.4306L21.854 26.3029C21.854 26.2481 21.8716 26.2114 21.8716 26.1752L21.854 26.1204C21.854 26.0838 21.8189 26.0656 21.7838 26.0656C21.7137 26.0656 21.6259 26.1204 21.5207 26.2483L21.4154 26.3577C21.3276 26.4672 21.2574 26.5951 21.1697 26.741C21.1171 26.8325 21.0819 26.9054 21.0644 26.9784L20.9942 27.1973L20.8363 27.6899H20.5555L20.6959 27.1791ZM23.4511 27.2521C23.3283 27.4162 23.223 27.5258 23.1528 27.5807C23.03 27.6901 22.8896 27.7448 22.7667 27.7448C22.6437 27.7448 22.5561 27.6901 22.4859 27.5807C22.4157 27.4892 22.3806 27.38 22.3806 27.2521C22.3806 27.1242 22.4157 26.9784 22.4684 26.814C22.5912 26.5221 22.7492 26.2847 22.9598 26.1025C23.0476 26.0295 23.1353 25.9565 23.2406 25.9198C23.3283 25.8651 23.4161 25.8468 23.5038 25.8468C23.5914 25.8468 23.6792 25.8833 23.7495 25.9564L23.7847 26.0293L23.8198 25.9016H24.1006L24.0656 26.0476L23.9603 26.4491L23.8198 26.9966L23.7497 27.2885C23.732 27.3615 23.7145 27.4162 23.7145 27.4711C23.7145 27.4893 23.732 27.4893 23.732 27.5076L23.7497 27.526H23.7672C23.8023 27.526 23.8901 27.4531 23.9954 27.3253L24.0478 27.2339L24.1004 27.3068L24.0477 27.398L23.9249 27.5258C23.7846 27.6717 23.6792 27.7447 23.5916 27.7447C23.4687 27.7265 23.416 27.6717 23.416 27.5621C23.416 27.5438 23.4336 27.4891 23.4336 27.4343L23.4862 27.179L23.4511 27.2521ZM22.7317 27.2336C22.7317 27.4162 22.8018 27.5258 22.9423 27.5258C23.1003 27.5258 23.2758 27.3798 23.4337 27.1061C23.4864 27.0147 23.5214 26.9235 23.5741 26.7958C23.6092 26.7046 23.6444 26.5951 23.6619 26.4854C23.697 26.376 23.7145 26.2847 23.7145 26.2117C23.7145 26.1387 23.697 26.084 23.6619 26.0476C23.6092 25.9928 23.5741 25.9746 23.5039 25.9746C23.4161 25.9746 23.3109 26.0293 23.2056 26.1205C23.1169 26.1946 23.045 26.288 22.995 26.3942C22.9423 26.5037 22.8896 26.5949 22.8545 26.7046C22.7667 26.9053 22.7317 27.0694 22.7317 27.2336ZM24.3813 26.0476L24.3988 25.9564C24.5391 25.9198 24.6446 25.8649 24.7321 25.7737C24.7848 25.7372 24.8374 25.6823 24.9077 25.6278L25.0306 25.4634H25.1007L24.9954 25.9015H25.2938L25.2587 26.0474H24.9605L24.6269 27.2882L24.6094 27.3797L24.5919 27.4527C24.5919 27.4709 24.5919 27.4891 24.6094 27.5072L24.6269 27.5256C24.6621 27.5256 24.7323 27.4709 24.8199 27.3612C24.8551 27.3248 24.8726 27.2882 24.9079 27.2518L24.9254 27.2153L24.9955 27.2518L24.9429 27.3248L24.8377 27.4707C24.8026 27.5255 24.7675 27.5803 24.7324 27.6167C24.6447 27.6897 24.5568 27.7444 24.4517 27.7444C24.3289 27.7444 24.2761 27.6714 24.2761 27.5437C24.2761 27.5072 24.2761 27.4707 24.2936 27.416L24.3638 27.1788L24.6622 26.0473H24.3813V26.0476ZM26.0307 27.3068L25.9956 27.3433C25.959 27.4173 25.9117 27.4849 25.8553 27.544C25.75 27.6717 25.6445 27.7447 25.5217 27.7447C25.3814 27.7447 25.329 27.6535 25.329 27.471C25.329 27.398 25.3465 27.2884 25.3992 27.1243L25.6447 26.2666C25.6447 26.2302 25.6624 26.1936 25.6624 26.1572C25.6624 26.084 25.6273 26.0477 25.5571 26.0477L25.4695 26.0295H25.4168L25.4518 25.9565L26.0661 25.847L25.68 27.2155L25.6448 27.3615C25.6273 27.4162 25.6273 27.4344 25.6273 27.471C25.6273 27.5074 25.6448 27.5258 25.68 27.5258C25.7326 27.5258 25.7676 27.5073 25.8203 27.4528C25.8554 27.398 25.8905 27.3433 25.9431 27.2884L25.9606 27.2519L26.0307 27.3068ZM25.8027 25.2446C25.8027 25.0986 25.8728 25.0257 25.9956 25.0257C26.1185 25.0257 26.1886 25.0986 26.1886 25.2446C26.1886 25.2993 26.1711 25.3541 26.136 25.3905C26.101 25.4453 26.0483 25.4635 25.9781 25.4635C25.8728 25.4635 25.8027 25.3905 25.8027 25.2446ZM26.3116 27.1424C26.3116 26.9235 26.3642 26.7228 26.4872 26.5402C26.5924 26.3394 26.7152 26.1935 26.8733 26.0656C27.0487 25.9197 27.2419 25.8467 27.4349 25.8467C27.5927 25.8467 27.7331 25.9197 27.8384 26.0293C27.9437 26.1387 27.9787 26.2665 27.9787 26.449C27.9787 26.6679 27.9261 26.8686 27.8031 27.0694C27.6979 27.2521 27.5751 27.4161 27.417 27.5258C27.2416 27.6717 27.0662 27.7447 26.8732 27.7447C26.777 27.7459 26.6815 27.7273 26.5922 27.6899C26.3993 27.5987 26.3116 27.4162 26.3116 27.1424ZM26.6449 27.2336C26.6449 27.3431 26.6624 27.4343 26.7151 27.5073C26.7677 27.5805 26.8379 27.6168 26.9433 27.6168C27.119 27.6168 27.2767 27.4891 27.3996 27.2153C27.5575 26.9234 27.6454 26.6315 27.6454 26.3575C27.6454 26.1022 27.5575 25.9744 27.3822 25.9744C27.1892 25.9744 26.9961 26.1386 26.8382 26.4853C26.7151 26.7593 26.6449 27.0147 26.6449 27.2336ZM28.2419 27.1791L28.3647 26.7228L28.47 26.2665C28.4875 26.2117 28.4875 26.1753 28.4875 26.1387C28.4875 26.084 28.4525 26.0476 28.3998 26.0476L28.3119 26.0293H28.2593L28.277 25.9564L28.891 25.8468L28.6805 26.6316L28.7332 26.5402L28.8385 26.376C29.0843 26.0293 29.3121 25.8467 29.5053 25.8467C29.6456 25.8649 29.7158 25.9379 29.7335 26.0838V26.1752L29.7158 26.2846L29.6807 26.4308L29.4702 27.2519L29.4176 27.4343V27.4891C29.4176 27.5256 29.4351 27.5256 29.4702 27.5256C29.5053 27.5256 29.5928 27.4709 29.6807 27.343L29.7684 27.2335L29.8211 27.2882L29.7509 27.3978C29.7158 27.4525 29.6807 27.5072 29.6281 27.5437C29.5929 27.5803 29.5579 27.6167 29.5053 27.6532L29.3999 27.708C29.3649 27.7262 29.3298 27.7444 29.2948 27.7444C29.1719 27.7444 29.1191 27.6714 29.1191 27.5437V27.3978C29.1367 27.3066 29.1543 27.2333 29.1893 27.1604L29.3823 26.4306L29.3998 26.3029C29.4176 26.2481 29.4176 26.2114 29.4176 26.1752V26.1204C29.3998 26.0838 29.3824 26.0656 29.3474 26.0656C29.2595 26.0656 29.1718 26.1204 29.0665 26.2483L28.9788 26.3577C28.8909 26.4672 28.8032 26.5951 28.733 26.741C28.6889 26.8183 28.6479 26.8975 28.6102 26.9784L28.54 27.1973L28.3997 27.6899H28.1013L28.2419 27.1791ZM30.9972 27.2521C30.8743 27.4162 30.7864 27.5258 30.7162 27.5807C30.5759 27.6901 30.4531 27.7448 30.3128 27.7448C30.1899 27.7448 30.102 27.6901 30.0318 27.5807C29.9794 27.4892 29.9442 27.38 29.9442 27.2521C29.9442 27.1242 29.9617 26.9784 30.0318 26.814C30.1371 26.5221 30.2952 26.2847 30.5233 26.1025C30.6112 26.0295 30.6989 25.9565 30.7864 25.9198C30.8743 25.8651 30.962 25.8468 31.0496 25.8468C31.1549 25.8468 31.2252 25.8833 31.2953 25.9564L31.348 26.0293L31.3832 25.9016H31.6638L31.6112 26.0476L31.5058 26.4491L31.3655 26.9966L31.2953 27.2885C31.2778 27.3615 31.2778 27.4162 31.2778 27.4711V27.5076L31.2953 27.526H31.3131C31.3655 27.526 31.4357 27.4531 31.5411 27.3253L31.5938 27.2339L31.6638 27.3068L31.5936 27.398L31.4883 27.5258C31.348 27.6717 31.2252 27.7447 31.1375 27.7447C31.0322 27.7265 30.9794 27.6717 30.9794 27.5621C30.9794 27.5438 30.9794 27.4891 30.9972 27.4343L31.0496 27.179L30.9972 27.2521ZM30.2775 27.2336C30.2775 27.4162 30.3654 27.5258 30.5057 27.5258C30.6636 27.5258 30.8217 27.3798 30.9794 27.1061C31.0321 27.0147 31.0847 26.9235 31.1197 26.7958C31.1549 26.7046 31.1902 26.5951 31.225 26.4854C31.2426 26.376 31.2602 26.2847 31.2602 26.2117C31.2602 26.1387 31.2424 26.084 31.2075 26.0476C31.1724 25.9928 31.1196 25.9746 31.0672 25.9746C30.9619 25.9746 30.8564 26.0293 30.7513 26.1205C30.6811 26.1935 30.6109 26.2847 30.5405 26.3942C30.4878 26.5037 30.4353 26.5949 30.4002 26.7046C30.3126 26.9053 30.2775 27.0694 30.2775 27.2336ZM32.3832 25.4635C32.401 25.3905 32.4184 25.3541 32.4184 25.3176V25.281C32.4009 25.2446 32.3482 25.2265 32.2781 25.2265H32.1728L32.2079 25.1535L32.8045 25.044L32.2254 27.2704C32.2079 27.3616 32.1903 27.4346 32.1903 27.4531L32.208 27.4895C32.208 27.526 32.2255 27.526 32.243 27.526C32.2782 27.526 32.3132 27.4895 32.3834 27.4346L32.4713 27.3252L32.5415 27.2522L32.5765 27.1975L32.6467 27.2522L32.5943 27.3252C32.5591 27.3982 32.5063 27.4529 32.4714 27.5076C32.3309 27.6538 32.2083 27.745 32.1028 27.745C32.0327 27.745 31.98 27.7267 31.9447 27.6902C31.8923 27.6538 31.8746 27.599 31.8746 27.5442C31.8746 27.4895 31.8923 27.4531 31.8923 27.3983L31.9625 27.1427L32.3832 25.4635ZM33.4189 24.9527C33.4713 24.9527 33.5066 24.9709 33.5592 24.9891C33.5942 25.0073 33.6294 25.0439 33.6469 25.0806C33.682 25.1351 33.682 25.1717 33.682 25.2265C33.682 25.281 33.682 25.3177 33.6469 25.3542C33.6326 25.4013 33.6011 25.4406 33.5592 25.4636C33.5066 25.4818 33.4713 25.5002 33.4189 25.5002C33.3662 25.5002 33.3309 25.4817 33.2961 25.4636C33.2712 25.4558 33.2486 25.4417 33.2302 25.4227C33.2119 25.4036 33.1983 25.3801 33.1907 25.3542C33.1732 25.3177 33.1556 25.281 33.1556 25.2265C33.1556 25.1717 33.1734 25.1351 33.1907 25.0806C33.2083 25.044 33.2434 25.0073 33.2961 24.9891C33.3309 24.9527 33.3836 24.9527 33.4189 24.9527ZM33.4189 25.0072C33.3837 25.0072 33.3485 25.0072 33.3136 25.0257C33.2784 25.0439 33.2609 25.0804 33.2434 25.1168C33.2259 25.1534 33.2083 25.1898 33.2083 25.2264C33.2083 25.2628 33.226 25.2993 33.2434 25.3358C33.2609 25.3723 33.2784 25.3905 33.3136 25.4087C33.3486 25.4272 33.3837 25.4453 33.4189 25.4453C33.4539 25.4453 33.489 25.4271 33.5241 25.4087C33.5592 25.3905 33.5942 25.3723 33.612 25.3358C33.6295 25.2993 33.6295 25.2628 33.6295 25.2264C33.6295 25.1898 33.6295 25.1534 33.612 25.1168C33.5921 25.078 33.5615 25.0463 33.5241 25.0257C33.489 25.0072 33.4538 25.0072 33.4189 25.0072ZM33.2959 25.3723V25.0804H33.4538C33.4713 25.0804 33.4889 25.0804 33.4889 25.0986C33.5064 25.0986 33.5064 25.1168 33.5239 25.1168V25.1534C33.5239 25.1898 33.5239 25.2079 33.5064 25.2079C33.4889 25.2264 33.4713 25.2444 33.4538 25.2444C33.4538 25.2444 33.4713 25.2444 33.4713 25.2627C33.4713 25.2627 33.4891 25.2627 33.4891 25.2809C33.4891 25.2809 33.5066 25.2993 33.5066 25.3174L33.5416 25.3722H33.4714L33.4539 25.3174C33.4364 25.2992 33.4189 25.2809 33.4189 25.2627C33.4011 25.2627 33.3837 25.2444 33.3662 25.2444V25.3722H33.2959V25.3723ZM33.3661 25.2079H33.4363C33.4538 25.2079 33.4538 25.1897 33.4538 25.1897C33.4713 25.1897 33.4713 25.1715 33.4713 25.1715C33.4713 25.1533 33.4713 25.1533 33.4538 25.1349H33.4363H33.3661V25.2079Z" fill="black"/>
</g>
<defs>
<clipPath id="clip0_60_191">
<rect width="25" height="26" fill="white" transform="translate(11.2495 3.56738)"/>
</clipPath>
</defs>
</svg>
