<svg width="46" height="32" viewBox="0 0 46 32" fill="none" xmlns="http://www.w3.org/2000/svg">
<path d="M44.8136 31.6695H0V0.981445H45.5882V31.6695H44.8136Z" fill="#1D5B99"/>
<path fill-rule="evenodd" clip-rule="evenodd" d="M44.8136 30.8948H0.774536V1.75586H44.8136V30.8948Z" fill="white"/>
<path fill-rule="evenodd" clip-rule="evenodd" d="M16.6912 21.057L19.5513 11.6267H22.1032L19.2429 21.057H16.6912ZM15.5504 11.6293L13.2547 15.6271C12.6706 16.6742 12.3287 17.2031 12.1645 17.8643H12.1295C12.1702 17.026 12.0532 15.9959 12.0423 15.4138L11.7886 11.6293H7.49306L7.44922 11.8829C8.55269 11.8829 9.20714 12.4373 9.38716 13.5713L10.2245 21.057H12.8682L18.2141 11.6293H15.5504ZM35.3957 21.057L35.3254 19.6547L32.1392 19.6521L31.4871 21.057H28.7168L33.7405 11.6446H37.1409L37.9915 21.057H35.3957ZM35.1034 15.4942C35.0746 14.7972 35.0512 13.8515 35.0982 13.2787H35.0606C34.9054 13.747 34.2383 15.1529 33.9449 15.8442L32.9955 17.911H35.2328L35.1034 15.4942ZM24.7823 21.3249C22.9808 21.3249 21.785 20.7535 20.9315 20.2438L22.1471 18.3875C22.9136 18.8161 23.5151 19.3107 24.8998 19.3107C25.3446 19.3107 25.7737 19.1953 26.0175 18.7733C26.3721 18.1603 25.9355 17.8298 24.9389 17.2657L24.4466 16.9456C22.9688 15.936 22.3294 14.9767 23.0251 13.3026C23.4705 12.2318 24.6443 11.4199 26.5817 11.4199C27.9171 11.4199 29.1697 11.9979 29.8991 12.5623L28.5017 14.2012C27.7894 13.6253 27.1993 13.334 26.5239 13.334C25.9853 13.334 25.576 13.5418 25.4347 13.8219C25.1688 14.3485 25.5208 14.7075 26.2974 15.1895L26.8826 15.5619C28.6771 16.6937 29.1041 17.8802 28.6548 18.9891C27.8807 20.899 26.3664 21.3249 24.7823 21.3249ZM38.7512 12.9047H38.6407V12.2318H38.896C39.0586 12.2318 39.1411 12.2886 39.1411 12.4253C39.1411 12.5473 39.0667 12.5978 38.9657 12.609L39.1543 12.9047H39.0293L38.8555 12.6173H38.7512V12.9047ZM38.8747 12.5226C38.9577 12.5226 39.0309 12.5146 39.0309 12.417C39.0309 12.3358 38.9512 12.326 38.8851 12.326H38.7512V12.5226H38.8747ZM38.8716 13.1649C38.5219 13.1649 38.2732 12.9031 38.2732 12.5569C38.2732 12.1914 38.5492 11.9491 38.8716 11.9491C39.1899 11.9491 39.4664 12.1914 39.4664 12.5569C39.4664 12.9226 39.1899 13.1649 38.8716 13.1649ZM38.8716 12.0547C38.608 12.0547 38.4034 12.2611 38.4034 12.5569C38.4034 12.8331 38.5821 13.059 38.8716 13.059C39.1315 13.059 39.3362 12.8541 39.3362 12.5569C39.3362 12.2611 39.1315 12.0547 38.8716 12.0547Z" fill="#1D5B99"/>
<path fill-rule="evenodd" clip-rule="evenodd" d="M43.7294 23.9863H1.9364V29.5781H43.7294V23.9863Z" fill="#E7A83A"/>
<path fill-rule="evenodd" clip-rule="evenodd" d="M43.6517 3.15039H1.85901V8.74243H43.6517V3.15039ZM42.6966 29.1807H42.5861V28.5078H42.8414C43.004 28.5078 43.0865 28.5646 43.0865 28.7013C43.0865 28.823 43.0121 28.8736 42.9112 28.8847L43.0997 29.1807H42.9747L42.8009 28.893H42.6966V29.1807ZM42.8204 28.7986C42.9034 28.7986 42.9765 28.7906 42.9765 28.6928C42.9765 28.6119 42.8969 28.602 42.8307 28.602H42.6969V28.7986H42.8204ZM42.8173 29.4406C42.4676 29.4406 42.2188 29.1792 42.2188 28.8326C42.2188 28.4674 42.4954 28.2251 42.8173 28.2251C43.1361 28.2251 43.4121 28.4674 43.4121 28.8326C43.4121 29.1983 43.1361 29.4406 42.8173 29.4406ZM42.8173 28.3304C42.5537 28.3304 42.3491 28.5371 42.3491 28.8326C42.3491 29.1091 42.5278 29.3348 42.8173 29.3348C43.0772 29.3348 43.2818 29.1301 43.2818 28.8326C43.2818 28.5371 43.0772 28.3304 42.8173 28.3304Z" fill="#1D5B99"/>
</svg>
