<svg width="33" height="33" viewBox="0 0 33 33" fill="none" xmlns="http://www.w3.org/2000/svg">
<path d="M19.3715 16.0839L15.5471 14.2994C15.2133 14.1444 14.9392 14.3181 14.9392 14.6876V18.0489C14.9392 18.4184 15.2133 18.5921 15.5471 18.4372L19.3698 16.6527C19.7053 16.496 19.7053 16.2406 19.3715 16.0839ZM16.642 0.0214844C7.61377 0.0214844 0.295166 7.34008 0.295166 16.3683C0.295166 25.3965 7.61377 32.7151 16.642 32.7151C25.6702 32.7151 32.9888 25.3965 32.9888 16.3683C32.9888 7.34008 25.6702 0.0214844 16.642 0.0214844ZM16.642 23.0092C8.27445 23.0092 8.12801 22.2548 8.12801 16.3683C8.12801 10.4817 8.27445 9.7274 16.642 9.7274C25.0095 9.7274 25.1559 10.4817 25.1559 16.3683C25.1559 22.2548 25.0095 23.0092 16.642 23.0092Z" fill="white"/>
</svg>
